lab3/sim/counter_tb.vcd
$date
	Tue Apr  9 16:55:00 2024
$end
$version
	Icarus Verilog
$end
$timescale
	1ns
$end
$scope module counter_tb $end
$var wire 6 ! counter_output [5:0] $end
$var parameter 32 " CLK_FREQ $end
$var parameter 32 # CLK_PERIOD $end
$var parameter 32 $ N $end
$var parameter 32 % RATE_HZ $end
$var reg 1 & clock $end
$var reg 1 ' rst_counter $end
$var reg 6 ( rst_counter_val [5:0] $end
$scope module dut $end
$var wire 1 & clk $end
$var wire 6 ) counter_output [5:0] $end
$var wire 1 ' rst_counter $end
$var wire 6 * rst_counter_val [5:0] $end
$var wire 32 + tick_cnt [31:0] $end
$var parameter 32 , N $end
$var parameter 32 - RATE_HZ $end
$var reg 6 . second_cnt [5:0] $end
$var reg 32 / tick_cnt_next [31:0] $end
$scope module tick_reg $end
$var wire 1 & clk $end
$var wire 32 0 d [31:0] $end
$var parameter 32 1 N $end
$var reg 32 2 q [31:0] $end
$upscope $end
$upscope $end
$upscope $end
$enddefinitions $end
$comment Show the parameter values. $end
$dumpall
b100000 1
b11001 -
b110 ,
b11001 %
b110 $
b1000 #
b111011100110101100101000000 "
$end
#0
$dumpvars
b0 2
b1 0
b1 /
bx .
b0 +
b0 *
bx )
b0 (
0'
0&
bx !
$end
#4
b10 /
b10 0
b1 +
b1 2
1&
#8
0&
#12
b11 /
b11 0
b10 +
b10 2
1&
#16
0&
#20
b100 /
b100 0
b11 +
b11 2
1&
#24
0&
#28
b101 /
b101 0
b100 +
b100 2
1&
#32
0&
#36
b110 /
b110 0
b101 +
b101 2
1&
#40
0&
#44
b111 /
b111 0
b110 +
b110 2
1&
#48
0&
#52
b1000 /
b1000 0
b111 +
b111 2
1&
#56
0&
#60
b1001 /
b1001 0
b1000 +
b1000 2
1&
#64
0&
#68
b1010 /
b1010 0
b1001 +
b1001 2
1&
#72
0&
#76
b1011 /
b1011 0
b1010 +
b1010 2
1&
#80
0&
#84
b1100 /
b1100 0
b1011 +
b1011 2
1&
#88
0&
#92
b1101 /
b1101 0
b1100 +
b1100 2
1&
#96
0&
#100
b1110 /
b1110 0
b1101 +
b1101 2
1&
#104
0&
#108
b1111 /
b1111 0
b1110 +
b1110 2
1&
#112
0&
#116
b10000 /
b10000 0
b1111 +
b1111 2
1&
#120
0&
#124
b10001 /
b10001 0
b10000 +
b10000 2
1&
#128
0&
#132
b10010 /
b10010 0
b10001 +
b10001 2
1&
#136
0&
#140
b10011 /
b10011 0
b10010 +
b10010 2
1&
#144
0&
#148
b10100 /
b10100 0
b10011 +
b10011 2
1&
#152
0&
#156
b10101 /
b10101 0
b10100 +
b10100 2
1&
#160
0&
#164
b10110 /
b10110 0
b10101 +
b10101 2
1&
#168
0&
#172
b10111 /
b10111 0
b10110 +
b10110 2
1&
#176
0&
#180
b11000 /
b11000 0
b10111 +
b10111 2
1&
#184
0&
#188
b11001 /
b11001 0
b11000 +
b11000 2
1&
#192
0&
#196
b0 /
b0 0
b11001 +
b11001 2
1&
#200
b1101 !
b1101 )
b1101 .
0&
b1101 (
b1101 *
1'
#204
b0 +
b0 2
1&
